{
    "lerna": "2.10.2",
    "packages": [
        "core/*",
        "mails/*",
        "packages/*",
        "promo/*",
        "uikit/*"
    ],
    "version": "independent",
    "npmClient": "yarn",
    "useWorkspaces": true,
    "command": {
        "publish": {
            "allowBranch": "master"
        }
    }
}
